Generated using PyEER 0.5.4
Experiment ID,GMean,GSTD,IMean,ISTD,Sensitivity index (d'),AUC,J-Index,J-Index_TH,MCC,MCC_TH,EERlow,EERhigh,EER,ZeroFMR,FMR1000,FMR100,FMR20,FMR10,ZeroFNMR,EER_TH,ZeroFMR_TH,FMR1000_TH,FMR100_TH,FMR20_TH,FMR10_TH,ZeroFNMR_TH
A,116.33333333333333,16.131404843417148,88.66666666666667,5.749396103553447,2.2847161785810117,0.951388888888889,0.75,94.0,0.7559289460184546,116.0,0.16666666666666666,0.16666666666666666,0.16666666666666666,0.3333333333333333,0.3333333333333333,0.3333333333333333,0.16666666666666666,0.16666666666666666,0.25,97.0,116.0,116.0,116.0,99.0,99.0,94.0

Legend:
GMean: Genuine scores distribution mean
GSTD: Genuine scores distribution standard deviation
IMean: Impostor scores distribution mean
IVariance: Impostor scores distribution standard deviation
Sensitivity index (d'): See NICE:II protocol evaluation
AUC: Area under the ROC curve
J-Index: Youden's J statistic (Youden's Index)
MCC: Matthews Correlation Coefficient
EER: Equal Error Rate
"EERlow, EERhigh: See FVC2000 protocol evaluation"
FMR: False Match Rate
FNMR: False Non-Match Rate
_TH: Threshold
EER_TH: Threshold for which EERlow and EERHigh were calculated
